{
    "users": [
        { "id": 1, "username": "flavian", "password": "Test1234=" },
        { "id": 2, "username": "alexandre", "password": "Padawan1234=" }
    ],
    "tuteurs": [
        { "id": 1, "nom": "Ovyn", "prenom": "Flavian" }
    ],
    "enfants": [
        { "id": 1, "nom": "Ovyn", "prenom": "Léopold", "userId": 1 },
        { "id": 2, "nom": "Ovyn", "prenom": "Athénaïs", "userId": 1 }
    ]
}